                      :-) GROMACS - gmx check, 2016.4 (-:

                            GROMACS is written by:
     Emile Apol      Rossen Apostolov  Herman J.C. Berendsen    Par Bjelkmar   
 Aldert van Buuren   Rudi van Drunen     Anton Feenstra    Gerrit Groenhof  
 Christoph Junghans   Anca Hamuraru    Vincent Hindriksen Dimitrios Karkoulis
    Peter Kasson        Jiri Kraus      Carsten Kutzner      Per Larsson    
  Justin A. Lemkul   Magnus Lundborg   Pieter Meulenhoff    Erik Marklund   
   Teemu Murtola       Szilard Pall       Sander Pronk      Roland Schulz   
  Alexey Shvetsov     Michael Shirts     Alfons Sijbers     Peter Tieleman  
  Teemu Virolainen  Christian Wennberg    Maarten Wolf   
                           and the project leaders:
        Mark Abraham, Berk Hess, Erik Lindahl, and David van der Spoel

Copyright (c) 1991-2000, University of Groningen, The Netherlands.
Copyright (c) 2001-2017, The GROMACS development team at
Uppsala University, Stockholm University and
the Royal Institute of Technology, Sweden.
check out http://www.gromacs.org for more information.

GROMACS is free software; you can redistribute it and/or modify it
under the terms of the GNU Lesser General Public License
as published by the Free Software Foundation; either version 2.1
of the License, or (at your option) any later version.

GROMACS:      gmx check, version 2016.4
Executable:   /home/fabio/gromacs/gromacs_files/gromacs_git/gromacs_efield/gromacs-2016.4/build/bin/gmx
Data prefix:  /home/fabio/gromacs/gromacs_files/gromacs_git/gromacs_efield/gromacs-2016.4 (source tree)
Working dir:  /home/fabio/gromacs/gromacs_files/gromacs_git/gromacs_efield/gromacs-2016.4/build/tests/regressiontests-2016.4/simple/morse
Command line:
  gmx check -s1 ./reference_s.tpr -s2 topol.tpr -tol 0.0001 -abstol 0.001

Reading file ./reference_s.tpr, VERSION 4.6-beta2-dev-20121220-4d3a2d4 (single precision)
Note: file tpx version 82, software tpx version 110
Reading file topol.tpr, VERSION 2016.4 (single precision)

Thanx for Using GROMACS - Have a Nice Day

