Log file opened on Wed Nov 18 16:14:13 2015
Host: gromacs  pid: 2937  rank ID: 0  number of ranks:  1
         :-) GROMACS - gmx mdrun, VERSION 5.2-dev-20151116-cbfb5bb (-:

                            GROMACS is written by:
     Emile Apol      Rossen Apostolov  Herman J.C. Berendsen    Par Bjelkmar   
 Aldert van Buuren   Rudi van Drunen     Anton Feenstra    Gerrit Groenhof  
 Christoph Junghans   Anca Hamuraru    Vincent Hindriksen Dimitrios Karkoulis
    Peter Kasson        Jiri Kraus      Carsten Kutzner      Per Larsson    
  Justin A. Lemkul   Magnus Lundborg   Pieter Meulenhoff    Erik Marklund   
   Teemu Murtola       Szilard Pall       Sander Pronk      Roland Schulz   
  Alexey Shvetsov     Michael Shirts     Alfons Sijbers     Peter Tieleman  
  Teemu Virolainen  Christian Wennberg    Maarten Wolf   
                           and the project leaders:
        Mark Abraham, Berk Hess, Erik Lindahl, and David van der Spoel

Copyright (c) 1991-2000, University of Groningen, The Netherlands.
Copyright (c) 2001-2015, The GROMACS development team at
Uppsala University, Stockholm University and
the Royal Institute of Technology, Sweden.
check out http://www.gromacs.org for more information.

GROMACS is free software; you can redistribute it and/or modify it
under the terms of the GNU Lesser General Public License
as published by the Free Software Foundation; either version 2.1
of the License, or (at your option) any later version.

GROMACS:      gmx mdrun, VERSION 5.2-dev-20151116-cbfb5bb
Executable:   /nethome/mark/git/master-make-reference/build-cmake-reference-gromacs/install/bin/gmx
Data prefix:  /nethome/mark/git/master-make-reference/build-cmake-reference-gromacs/install
Command line:
  gmx mdrun -notunepme -table ./../table -tablep ./../tablep

GROMACS version:    VERSION 5.2-dev-20151116-cbfb5bb
GIT SHA1 hash:      cbfb5bbdbcdc085d343038fa7ce97b665ad7ba41
Precision:          single
Memory model:       64 bit
MPI library:        none
OpenMP support:     disabled
GPU support:        disabled
OpenCL support:     disabled
invsqrt routine:    (1.0/sqrtf(x))
SIMD instructions:  NONE
FFT library:        fftpack (built-in)
RDTSCP usage:       enabled
TNG support:        enabled
Tracing support:    disabled
Built on:           Wed Nov 18 10:59:45 CET 2015
Built by:           mark@gromacs [CMAKE]
Build OS/arch:      Linux 3.13.0-68-generic x86_64
Build CPU vendor:   GenuineIntel
Build CPU brand:    Intel(R) Core(TM) i7 CPU         920  @ 2.67GHz
Build CPU family:   6   Model: 26   Stepping: 4
Build CPU features: apic clfsh cmov cx8 cx16 htt lahf_lm mmx msr nonstop_tsc pdcm popcnt pse rdtscp sse2 sse3 sse4.1 sse4.2 ssse3
C compiler:         /usr/bin/gcc-4.7 GNU 4.7.3
C compiler flags:       -Wundef -Wextra -Wno-missing-field-initializers -Wno-sign-compare -Wpointer-arith -Wall -Wno-unused -Wunused-value -Wunused-parameter -Wno-unknown-pragmas  -O0 -g
C++ compiler:       /usr/bin/g++-4.7 GNU 4.7.3
C++ compiler flags:    -std=c++0x  -Wundef -Wextra -Wno-missing-field-initializers -Wpointer-arith -Wall -Wno-unused-function -Wno-unknown-pragmas  -O0 -g


Running on 1 node with total 4 cores, 8 logical cores
Hardware detected:
  CPU info:
    Vendor: GenuineIntel
    Brand:  Intel(R) Core(TM) i7 CPU         920  @ 2.67GHz
    Family:  6  model: 26  stepping:  4
    CPU features: apic clfsh cmov cx8 cx16 htt lahf_lm mmx msr nonstop_tsc pdcm popcnt pse rdtscp sse2 sse3 sse4.1 sse4.2 ssse3
    SIMD instructions most likely to fit this hardware: SSE4.1
    SIMD instructions selected at GROMACS compile time: None


Binary not matching hardware - you might be losing performance.
SIMD instructions most likely to fit this hardware: SSE4.1
SIMD instructions selected at GROMACS compile time: None


++++ PLEASE READ AND CITE THE FOLLOWING REFERENCE ++++
M. J. Abraham, T. Murtola, R. Schulz, S. Páll, J. C. Smith, B. Hess, E.
Lindahl
GROMACS: High performance molecular simulations through multi-level
parallelism from laptops to supercomputers
SoftwareX 1 (2015) pp. 19-25
-------- -------- --- Thank You --- -------- --------


++++ PLEASE READ AND CITE THE FOLLOWING REFERENCE ++++
S. Páll, M. J. Abraham, C. Kutzner, B. Hess, E. Lindahl
Tackling Exascale Software Challenges in Molecular Dynamics Simulations with
GROMACS
In S. Markidis & E. Laure (Eds.), Solving Software Challenges for Exascale 8759 (2015) pp. 3-27
-------- -------- --- Thank You --- -------- --------


++++ PLEASE READ AND CITE THE FOLLOWING REFERENCE ++++
S. Pronk, S. Páll, R. Schulz, P. Larsson, P. Bjelkmar, R. Apostolov, M. R.
Shirts, J. C. Smith, P. M. Kasson, D. van der Spoel, B. Hess, and E. Lindahl
GROMACS 4.5: a high-throughput and highly parallel open source molecular
simulation toolkit
Bioinformatics 29 (2013) pp. 845-54
-------- -------- --- Thank You --- -------- --------


++++ PLEASE READ AND CITE THE FOLLOWING REFERENCE ++++
B. Hess and C. Kutzner and D. van der Spoel and E. Lindahl
GROMACS 4: Algorithms for highly efficient, load-balanced, and scalable
molecular simulation
J. Chem. Theory Comput. 4 (2008) pp. 435-447
-------- -------- --- Thank You --- -------- --------


++++ PLEASE READ AND CITE THE FOLLOWING REFERENCE ++++
D. van der Spoel, E. Lindahl, B. Hess, G. Groenhof, A. E. Mark and H. J. C.
Berendsen
GROMACS: Fast, Flexible and Free
J. Comp. Chem. 26 (2005) pp. 1701-1719
-------- -------- --- Thank You --- -------- --------


++++ PLEASE READ AND CITE THE FOLLOWING REFERENCE ++++
E. Lindahl and B. Hess and D. van der Spoel
GROMACS 3.0: A package for molecular simulation and trajectory analysis
J. Mol. Mod. 7 (2001) pp. 306-317
-------- -------- --- Thank You --- -------- --------


++++ PLEASE READ AND CITE THE FOLLOWING REFERENCE ++++
H. J. C. Berendsen, D. van der Spoel and R. van Drunen
GROMACS: A message-passing parallel molecular dynamics implementation
Comp. Phys. Comm. 91 (1995) pp. 43-56
-------- -------- --- Thank You --- -------- --------

Input Parameters:
   integrator                     = md
   tinit                          = 0
   dt                             = 0.002
   nsteps                         = 2
   init-step                      = 0
   simulation-part                = 1
   comm-mode                      = Linear
   nstcomm                        = 100
   bd-fric                        = 0
   ld-seed                        = 1993
   emtol                          = 10
   emstep                         = 0.01
   niter                          = 20
   fcstep                         = 0
   nstcgsteep                     = 1000
   nbfgscorr                      = 10
   rtpi                           = 0.05
   nstxout                        = 1
   nstvout                        = 0
   nstfout                        = 1
   nstlog                         = 1000
   nstcalcenergy                  = 2
   nstenergy                      = 1000
   nstxout-compressed             = 0
   compressed-x-precision         = 1000
   cutoff-scheme                  = Group
   nstlist                        = 1
   ns-type                        = Grid
   pbc                            = xyz
   periodic-molecules             = FALSE
   verlet-buffer-tolerance        = 0.005
   rlist                          = 0.99
   rlistlong                      = 0.99
   nstcalclr                      = 0
   coulombtype                    = PME
   coulomb-modifier               = None
   rcoulomb-switch                = 0.7
   rcoulomb                       = 0.99
   epsilon-r                      = 1
   epsilon-rf                     = inf
   vdw-type                       = User
   vdw-modifier                   = None
   rvdw-switch                    = 0.7
   rvdw                           = 0.99
   DispCorr                       = No
   table-extension                = 1
   fourierspacing                 = 0.12
   fourier-nx                     = 20
   fourier-ny                     = 20
   fourier-nz                     = 20
   pme-order                      = 4
   ewald-rtol                     = 1e-05
   ewald-rtol-lj                  = 0.001
   lj-pme-comb-rule               = Geometric
   ewald-geometry                 = 0
   epsilon-surface                = 0
   implicit-solvent               = No
   gb-algorithm                   = Still
   nstgbradii                     = 1
   rgbradii                       = 1
   gb-epsilon-solvent             = 80
   gb-saltconc                    = 0
   gb-obc-alpha                   = 1
   gb-obc-beta                    = 0.8
   gb-obc-gamma                   = 4.85
   gb-dielectric-offset           = 0.009
   sa-algorithm                   = Ace-approximation
   sa-surface-tension             = 2.05016
   tcoupl                         = No
   nsttcouple                     = -1
   nh-chain-length                = 0
   print-nose-hoover-chain-variables = FALSE
   pcoupl                         = No
   pcoupltype                     = Isotropic
   nstpcouple                     = -1
   tau-p                          = 1
   compressibility (3x3):
      compressibility[    0]={ 0.00000e+00,  0.00000e+00,  0.00000e+00}
      compressibility[    1]={ 0.00000e+00,  0.00000e+00,  0.00000e+00}
      compressibility[    2]={ 0.00000e+00,  0.00000e+00,  0.00000e+00}
   ref-p (3x3):
      ref-p[    0]={ 0.00000e+00,  0.00000e+00,  0.00000e+00}
      ref-p[    1]={ 0.00000e+00,  0.00000e+00,  0.00000e+00}
      ref-p[    2]={ 0.00000e+00,  0.00000e+00,  0.00000e+00}
   refcoord-scaling               = No
   posres-com (3):
      posres-com[0]= 0.00000e+00
      posres-com[1]= 0.00000e+00
      posres-com[2]= 0.00000e+00
   posres-comB (3):
      posres-comB[0]= 0.00000e+00
      posres-comB[1]= 0.00000e+00
      posres-comB[2]= 0.00000e+00
   QMMM                           = FALSE
   QMconstraints                  = 0
   QMMMscheme                     = 0
   MMChargeScaleFactor            = 1
qm-opts:
   ngQM                           = 0
   constraint-algorithm           = Lincs
   continuation                   = FALSE
   Shake-SOR                      = FALSE
   shake-tol                      = 0.0001
   lincs-order                    = 4
   lincs-iter                     = 1
   lincs-warnangle                = 30
   nwall                          = 0
   wall-type                      = 9-3
   wall-r-linpot                  = -1
   wall-atomtype[0]               = -1
   wall-atomtype[1]               = -1
   wall-density[0]                = 0
   wall-density[1]                = 0
   wall-ewald-zfac                = 3
   pull                           = FALSE
   rotation                       = FALSE
   interactiveMD                  = FALSE
   disre                          = No
   disre-weighting                = Conservative
   disre-mixed                    = FALSE
   dr-fc                          = 1000
   dr-tau                         = 0
   nstdisreout                    = 100
   orire-fc                       = 0
   orire-tau                      = 0
   nstorireout                    = 100
   free-energy                    = no
   cos-acceleration               = 0
   deform (3x3):
      deform[    0]={ 0.00000e+00,  0.00000e+00,  0.00000e+00}
      deform[    1]={ 0.00000e+00,  0.00000e+00,  0.00000e+00}
      deform[    2]={ 0.00000e+00,  0.00000e+00,  0.00000e+00}
   simulated-tempering            = FALSE
   E-x:
      n = 0
   E-xt:
      n = 0
   E-y:
      n = 0
   E-yt:
      n = 0
   E-z:
      n = 0
   E-zt:
      n = 0
   swapcoords                     = no
   userint1                       = 0
   userint2                       = 0
   userint3                       = 0
   userint4                       = 0
   userreal1                      = 0
   userreal2                      = 0
   userreal3                      = 0
   userreal4                      = 0
grpopts:
   nrdf:           0
   ref-t:           0
   tau-t:           0
annealing:          No
annealing-npoints:           0
   acc:	           0           0           0
   nfreeze:           Y           Y           Y
   energygrp-flags[  0]: 1 1
   energygrp-flags[  1]: 1 0


NOTE: GROMACS was compiled without OpenMP and (thread-)MPI support, can only use a single CPU core


NOTE: This file uses the deprecated 'group' cutoff_scheme. This will be
removed in a future release when 'verlet' supports all interaction forms.

Table routines are used for coulomb: FALSE
Table routines are used for vdw:     TRUE
Will do PME sum in reciprocal space for electrostatic interactions.

++++ PLEASE READ AND CITE THE FOLLOWING REFERENCE ++++
U. Essmann, L. Perera, M. L. Berkowitz, T. Darden, H. Lee and L. G. Pedersen 
A smooth particle mesh Ewald method
J. Chem. Phys. 103 (1995) pp. 8577-8592
-------- -------- --- Thank You --- -------- --------

Will do ordinary reciprocal space Ewald sum.
Using a Gaussian width (1/beta) of 0.316961 nm for Ewald
Cut-off's:   NS: 0.99   Coulomb: 0.99   LJ: 0.99
System total charge: 0.000
Read user tables from ./../table.xvg with 12001 data points.
Tabscale = 2000 points/nm
Generated table with 3980 data points for Ewald.
Tabscale = 2000 points/nm
Read user tables from ./../tablep.xvg with 12001 data points.
Tabscale = 2000 points/nm
Generated table with 12001 data points for 1-4 COUL.
Tabscale = 2000 points/nm

Enabling SPC-like water optimization for 196 molecules.

Potential shift: LJ r^-12: 0.000e+00 r^-6: 0.000e+00, Ewald -0.000e+00
Initialized non-bonded Ewald correction tables, spacing: 9.28e-04 size: 2145

Removing pbc first time
Center of mass motion removal mode is Linear
We have the following groups for center of mass motion removal:
  0:  rest
There are: 624 Atoms
Max number of connections per atom is 25
Total number of connections is 2000
Max number of graph edges per atom is 4
Total number of graph edges is 848
Initial temperature: 0 K

Started mdrun on rank 0 Wed Nov 18 16:14:14 2015
           Step           Time
              0        0.00000


Grid: 3 x 3 x 3 cells
   Energies (kJ/mol)
           Bond        G96Bond          Angle       G96Angle    Proper Dih.
    6.00326e+00    2.30017e+02    8.32747e-01    6.28154e+00    8.00118e+00
  Improper Dih.          LJ-14     Coulomb-14        LJ (SR)   Coulomb (SR)
    2.03469e+00    6.50745e+00    1.00417e+02    1.34700e+03   -6.92030e+03
   Coul. recip.      Potential    Kinetic En.   Total Energy    Temperature
   -2.05108e+03   -7.26428e+03    0.00000e+00   -7.26428e+03    0.00000e+00
 Pressure (bar)
    1.14999e+04

           Step           Time
              2        0.00400

Writing checkpoint, step 2 at Wed Nov 18 16:14:14 2015


   Energies (kJ/mol)
           Bond        G96Bond          Angle       G96Angle    Proper Dih.
    6.00326e+00    2.30017e+02    8.32747e-01    6.28154e+00    8.00118e+00
  Improper Dih.          LJ-14     Coulomb-14        LJ (SR)   Coulomb (SR)
    2.03469e+00    6.50745e+00    1.00417e+02    1.34700e+03   -6.92030e+03
   Coul. recip.      Potential    Kinetic En.   Total Energy    Temperature
   -2.05108e+03   -7.26428e+03    0.00000e+00   -7.26428e+03    0.00000e+00
 Pressure (bar)
    1.14999e+04

	<======  ###############  ==>
	<====  A V E R A G E S  ====>
	<==  ###############  ======>

	Statistics over 3 steps using 2 frames

   Energies (kJ/mol)
           Bond        G96Bond          Angle       G96Angle    Proper Dih.
    6.00326e+00    2.30017e+02    8.32747e-01    6.28154e+00    8.00118e+00
  Improper Dih.          LJ-14     Coulomb-14        LJ (SR)   Coulomb (SR)
    2.03469e+00    6.50745e+00    1.00417e+02    1.34700e+03   -6.92030e+03
   Coul. recip.      Potential    Kinetic En.   Total Energy    Temperature
   -2.05108e+03   -7.26428e+03    0.00000e+00   -7.26428e+03    0.00000e+00
 Pressure (bar)
    1.14999e+04

   Total Virial (kJ/mol)
   -2.25580e+03   -3.95966e+01    9.06515e+01
   -3.95948e+01   -2.53851e+03    5.92333e+02
    9.06516e+01    5.92330e+02   -3.51616e+03

   Pressure (bar)
    9.36460e+03    1.64379e+02   -3.76326e+02
    1.64372e+02    1.05383e+04   -2.45898e+03
   -3.76326e+02   -2.45897e+03    1.45968e+04

  Epot (kJ/mol)        Coul-SR          LJ-SR        Coul-14          LJ-14   
Protein-Protein    0.00000e+00    0.00000e+00    1.00417e+02    6.50745e+00
    Protein-SOL    0.00000e+00    0.00000e+00    0.00000e+00    0.00000e+00
        SOL-SOL   -6.92030e+03    1.34700e+03    0.00000e+00    0.00000e+00


	M E G A - F L O P S   A C C O U N T I N G

 NB=Group-cutoff nonbonded kernels    NxN=N-by-N cluster Verlet kernels
 RF=Reaction-Field  VdW=Van der Waals  QSTab=quadratic-spline table
 W3=SPC/TIP3p  W4=TIP4p (single or pairs)
 V&F=Potential and force  V=Potential only  F=Force only

 Computing:                               M-Number         M-Flops  % Flops
-----------------------------------------------------------------------------
 NB VdW & Elec. [W3-W3,V&F]               7.675110           7.675    38.9
 NB VdW & Elec. [W3-W3,F]                 3.147682           3.148    15.9
 1,4 nonbonded interactions               0.000120           0.011     0.1
 Calc Weights                             0.005616           0.202     1.0
 Spread Q Bspline                         0.119808           0.240     1.2
 Gather F Bspline                         0.119808           0.719     3.6
 3D-FFT                                   0.622356           4.979    25.2
 Solve PME                                0.001200           0.077     0.4
 NS-Pairs                                 0.112365           2.360    11.9
 Reset In Box                             0.000696           0.002     0.0
 Shift-X                                  0.003744           0.022     0.1
 CG-CoM                                   0.001872           0.006     0.0
 Bonds                                    0.001272           0.075     0.4
 Angles                                   0.000732           0.123     0.6
 Propers                                  0.000024           0.005     0.0
 Impropers                                0.000024           0.005     0.0
 Virial                                   0.001338           0.024     0.1
 Stop-CM                                  0.001248           0.012     0.1
 Calc-Ekin                                0.002496           0.067     0.3
-----------------------------------------------------------------------------
 Total                                                      19.752   100.0
-----------------------------------------------------------------------------


     R E A L   C Y C L E   A N D   T I M E   A C C O U N T I N G

On 1 MPI rank

 Computing:          Num   Num      Call    Wall time         Giga-Cycles
                     Ranks Threads  Count      (s)         total sum    %
-----------------------------------------------------------------------------
 Neighbor search        1    1          3       0.009          0.025  21.1
 Force                  1    1          3       0.016          0.044  37.4
 PME mesh               1    1          3       0.008          0.022  18.3
 Write traj.            1    1          3       0.008          0.023  19.0
 Update                 1    1          3       0.000          0.000   0.3
 Rest                                           0.002          0.005   3.9
-----------------------------------------------------------------------------
 Total                                          0.043          0.119 100.0
-----------------------------------------------------------------------------
 Breakdown of PME mesh computation
-----------------------------------------------------------------------------
 PME spread/gather      1    1          6       0.003          0.009   7.5
 PME 3D-FFT             1    1          6       0.003          0.010   8.0
 PME solve Elec         1    1          3       0.001          0.003   2.7
-----------------------------------------------------------------------------

               Core t (s)   Wall t (s)        (%)
       Time:        0.039        0.043       89.7
                 (ns/day)    (hour/ns)
Performance:       12.001        2.000
Finished mdrun on rank 0 Wed Nov 18 16:14:14 2015
